0
SECTION
2
HEADER
9
$INSUNITS
70
4
9
$ACADVER
1
AC1014
9
$HANDSEED
5
FFFF
0
ENDSEC
0
SECTION
2
TABLES
0
TABLE
2
VPORT
5
8
100
AcDbSymbolTable
0
ENDTAB
0
TABLE
2
LTYPE
5
5
100
AcDbSymbolTable
0
LTYPE
5
14
100
AcDbSymbolTableRecord
100
AcDbLinetypeTableRecord
2
BYBLOCK
70
0
0
LTYPE
5
15
100
AcDbSymbolTableRecord
100
AcDbLinetypeTableRecord
2
BYLAYER
70
0
0
LTYPE
5
16
100
AcDbSymbolTableRecord
100
AcDbLinetypeTableRecord
2
DASHED
70
0
3
Dashed __ __ __ __ __ __ __ __ __ __ __ __ __ _
72
65
73
2
40
0.75
49
0.5
74
0
49
-0.25
74
0
0
ENDTAB
0
TABLE
2
LAYER
5
2
100
AcDbSymbolTable
70
3
0
LAYER
5
50
100
AcDbSymbolTableRecord
100
AcDbLayerTableRecord
2
1
70
0
62
7
6
DASHED
0
LAYER
5
51
100
AcDbSymbolTableRecord
100
AcDbLayerTableRecord
2
0
70
0
62
7
6
CONTINUOUS
0
ENDTAB
0
TABLE
2
STYLE
5
3
100
AcDbSymbolTable
70
1
0
STYLE
5
11
100
AcDbSymbolTableRecord
100
AcDbTextStyleTableRecord
2
STANDARD
70
0
0
ENDTAB
0
TABLE
2
VIEW
5
6
100
AcDbSymbolTable
70
0
0
ENDTAB
0
TABLE
2
UCS
5
7
100
AcDbSymbolTable
70
0
0
ENDTAB
0
TABLE
2
APPID
5
9
100
AcDbSymbolTable
70
2
0
APPID
5
12
100
AcDbSymbolTableRecord
100
AcDbRegAppTableRecord
2
ACAD
70
0
0
ENDTAB
0
TABLE
2
DIMSTYLE
5
A
100
AcDbSymbolTable
70
1
0
ENDTAB
0
TABLE
2
BLOCK_RECORD
5
1
100
AcDbSymbolTable
70
1
0
BLOCK_RECORD
5
1F
100
AcDbSymbolTableRecord
100
AcDbBlockTableRecord
2
*MODEL_SPACE
0
BLOCK_RECORD
5
1B
100
AcDbSymbolTableRecord
100
AcDbBlockTableRecord
2
*PAPER_SPACE
0
ENDTAB
0
ENDSEC
0
SECTION
2
BLOCKS
0
BLOCK
5
20
100
AcDbEntity
100
AcDbBlockBegin
2
*MODEL_SPACE
0
ENDBLK
5
21
100
AcDbEntity
100
AcDbBlockEnd
0
BLOCK
5
1C
100
AcDbEntity
100
AcDbBlockBegin
2
*PAPER_SPACE
0
ENDBLK
5
1D
100
AcDbEntity
100
AcDbBlockEnd
0
ENDSEC
0
SECTION
2
ENTITIES
0
POINT
5
100
100
AcDbEntity
8
0
100
AcDbPoint
10
0
20
0
30
0
0
POINT
5
101
100
AcDbEntity
8
0
100
AcDbPoint
10
0
20
0
30
0
0
CIRCLE
5
102
100
AcDbEntity
8
0
100
AcDbCircle
10
0
20
0
30
0
40
150
210
0
220
0
230
1
0
CIRCLE
5
103
100
AcDbEntity
8
1
100
AcDbCircle
10
0
20
110
30
0
40
50
210
0
220
0
230
1
0
CIRCLE
5
104
100
AcDbEntity
8
1
100
AcDbCircle
10
-95.262794416288244
20
55.000000000000007
30
0
40
50
210
0
220
-0
230
1
0
CIRCLE
5
105
100
AcDbEntity
8
1
100
AcDbCircle
10
-95.262794416288273
20
-54.999999999999972
30
0
40
50
210
0
220
0
230
1
0
CIRCLE
5
106
100
AcDbEntity
8
1
100
AcDbCircle
10
-1.3471114790620885e-14
20
-110
30
0
40
50
210
0
220
0
230
1
0
CIRCLE
5
107
100
AcDbEntity
8
1
100
AcDbCircle
10
95.26279441628823
20
-55.000000000000028
30
0
40
49.999999999999993
210
0
220
0
230
1
0
CIRCLE
5
108
100
AcDbEntity
8
1
100
AcDbCircle
10
95.262794416288301
20
54.999999999999929
30
0
40
50
210
-0
220
0
230
1
0
CIRCLE
5
109
100
AcDbEntity
8
1
100
AcDbCircle
10
0
20
0
30
0
40
60
210
0
220
0
230
1
0
CIRCLE
5
110
100
AcDbEntity
8
0
100
AcDbCircle
10
0
20
110
30
0
40
2
210
0
220
0
230
1
0
CIRCLE
5
111
100
AcDbEntity
8
0
100
AcDbCircle
10
-95.262794416288244
20
55.000000000000007
30
0
40
2
210
0
220
-0
230
1
0
CIRCLE
5
112
100
AcDbEntity
8
0
100
AcDbCircle
10
-95.262794416288273
20
-54.999999999999972
30
0
40
2
210
0
220
0
230
1
0
CIRCLE
5
113
100
AcDbEntity
8
0
100
AcDbCircle
10
-1.3471114790620885e-14
20
-110
30
0
40
2
210
0
220
0
230
1
0
CIRCLE
5
114
100
AcDbEntity
8
0
100
AcDbCircle
10
95.26279441628823
20
-55.000000000000028
30
0
40
1.9999999999999998
210
0
220
0
230
1
0
CIRCLE
5
115
100
AcDbEntity
8
0
100
AcDbCircle
10
95.262794416288301
20
54.999999999999929
30
0
40
2
210
-0
220
0
230
1
0
CIRCLE
5
116
100
AcDbEntity
8
0
100
AcDbCircle
10
0
20
0
30
0
40
2
210
0
220
0
230
1
0
CIRCLE
5
117
100
AcDbEntity
8
0
100
AcDbCircle
10
0
20
45
30
0
40
7.4999999999999964
210
0
220
0
230
1
0
CIRCLE
5
118
100
AcDbEntity
8
0
100
AcDbCircle
10
-42.797543233281907
20
13.905764746872634
30
0
40
7.4999999999999964
210
0
220
0
230
1
0
CIRCLE
5
119
100
AcDbEntity
8
0
100
AcDbCircle
10
-26.450336353161298
20
-36.405764746872634
30
0
40
7.4999999999999964
210
0
220
0
230
1
0
CIRCLE
5
120
100
AcDbEntity
8
0
100
AcDbCircle
10
26.450336353161287
20
-36.405764746872634
30
0
40
7.4999999999999964
210
0
220
0
230
1
0
CIRCLE
5
121
100
AcDbEntity
8
0
100
AcDbCircle
10
42.797543233281914
20
13.905764746872624
30
0
40
7.4999999999999964
210
0
220
0
230
1
0
LINE
5
122
100
AcDbEntity
8
0
100
AcDbLine
10
0
20
0
30
0
11
82.571161955860902
21
-143.01744774754934
31
0
0
LINE
5
123
100
AcDbEntity
8
1
100
AcDbLine
10
0
20
0
30
0
11
0
21
155
31
0
0
LINE
5
124
100
AcDbEntity
8
0
100
AcDbLine
10
0
20
0
30
0
11
76.729117716357109
21
132.89873030466379
31
0
0
CIRCLE
5
125
100
AcDbEntity
8
0
100
AcDbCircle
10
0
20
0
30
0
40
1.8749999999999998
210
0
220
0
230
1
0
CIRCLE
5
126
100
AcDbEntity
8
0
100
AcDbCircle
10
0
20
110
30
0
40
1.8749999999999958
210
0
220
0
230
1
0
CIRCLE
5
127
100
AcDbEntity
8
0
100
AcDbCircle
10
-95.262794416288244
20
55.000000000000007
30
0
40
1.8749999999999958
210
0
220
0
230
1
0
CIRCLE
5
128
100
AcDbEntity
8
0
100
AcDbCircle
10
-95.262794416288273
20
-54.999999999999972
30
0
40
1.8749999999999958
210
0
220
0
230
1
0
CIRCLE
5
129
100
AcDbEntity
8
0
100
AcDbCircle
10
-1.3471114790620885e-14
20
-110
30
0
40
1.8749999999999958
210
0
220
0
230
1
0
CIRCLE
5
130
100
AcDbEntity
8
0
100
AcDbCircle
10
95.26279441628823
20
-55.000000000000028
30
0
40
1.8749999999999958
210
0
220
0
230
1
0
CIRCLE
5
131
100
AcDbEntity
8
0
100
AcDbCircle
10
95.262794416288301
20
54.999999999999929
30
0
40
1.8749999999999958
210
0
220
0
230
1
0
ENDSEC
0
SECTION
2
OBJECTS
0
DICTIONARY
5
C
100
AcDbDictionary
3
ACAD_GROUP
350
D
3
ACAD_MLINESTYLE
350
17
0
DICTIONARY
5
D
100
AcDbDictionary
0
DICTIONARY
5
1A
330
C
100
AcDbDictionary
0
DICTIONARY
5
17
100
AcDbDictionary
0
ENDSEC
0
EOF
